{
  "root": "/home/container/.forever",
  "pidPath": "/home/container/.forever/pids",
  "sockPath": "/home/container/.forever/sock",
  "loglength": 100,
  "logstream": false,
  "columns": [
    "uid",
    "command",
    "script",
    "forever",
    "pid",
    "id",
    "logfile",
    "uptime"
  ]
}